module github.com/PainCodermax/FashionShop_Website_Backend

go 1.16

require (
	github.com/dgrijalva/jwt-go v3.2.0+incompatible
	github.com/gin-gonic/gin v1.7.4
	github.com/go-playground/validator/v10 v10.9.0
	go.mongodb.org/mongo-driver v1.7.2
	golang.org/x/crypto v0.0.0-20210711020723-a769d52b0f97
)
